structure – BIOE591: Genomics for Ecology & Conservation
…
The important part of this output are the posterior probabilities of ancestry assignments. We will extract these and turn it into a tibble with sample name, cluster, and ancestry probability:

q <- as.data.frame(dapc1$posterior)
  q$sample <- rownames(q)
  q_long <- q |>
    pivot_longer(
      cols = -sample,
      names_to = "cluster",
      values_to = "ancestry"
    )
q_long

# A tibble: 160 × 3
   sample  cluster ancestry
   <chr>   <chr>      <dbl>
 1 002     1       1   e+ 0
 2 002     2       7.57e-39
 3 003     1       1   e+ 0
 4 003     2       1.04e-49
 5 004     1       1   e+ 0
 6 004     2       1.54e-46
 7 16_0002 1       1.05e-47
 8 16_0002 2       1   e+ 0
 9 16_0003 1       2.19e-50
10 16_0003 2       1   e+ 0
# ℹ 150 more rows
…
